…
```r
# Where were docked bikes taken out
rides_2022 %>% 
  filter(rideable_type == "docked_bike") %>% 
  group_by(start_station_name) %>% 
  summarize(num_rides=n()) %>% 
  # arrange(num_rides)
  arrange(desc(num_rides))
```

```
## # A tibble: 688 × 2
##    start_station_name                 num_rides
##    <chr>                                  <int>
##  1 Streeter Dr & Grand Ave                11788
##  2 DuSable Lake Shore Dr & Monroe St       6969
##  3 Millennium Park                         5796
##  4 Shedd Aquarium                          4658
##  5 Michigan Ave & Oak St                   4196
##  6 Dusable Harbor                          3163
##  7 DuSable Lake Shore Dr & North Blvd      3111
##  8 Adler Planetarium                       2698
##  9 Theater on the Lake                     2627
## 10 Montrose Harbor                         2363
## # … with 678 more rows
```
…
